…
## # A tibble: 342 x 27
##    year2 sic1   firms estabs    emp  denom estabs_entry estabs_entry_ra~
##    <dbl> <chr>  <dbl>  <dbl>  <dbl>  <dbl>        <dbl>            <dbl>
##  1  1977 07    3.59e4 3.70e4 2.76e5 2.54e5         7306             19.8
##  2  1977 10    1.94e4 2.54e4 8.00e5 7.70e5         4347             17.5
##  3  1977 15    3.83e5 3.89e5 3.40e6 3.30e6        81821             21.7
##  4  1977 20    2.60e5 3.17e5 1.93e7 1.89e7        38800             12.4
##  5  1977 40    1.21e5 1.63e5 4.30e6 4.11e6        24749             15.5
##  6  1977 50    2.75e5 3.68e5 4.76e6 4.61e6        55677             15.4
##  7  1977 52    9.40e5 1.24e6 1.36e7 1.32e7       231929             19  
##  8  1977 60    2.98e5 3.88e5 4.52e6 4.40e6        49182             12.8
##  9  1977 70    1.12e6 1.23e6 1.51e7 1.45e7       203938             17.1
## 10  1978 07    3.70e4 3.80e4 2.59e5 2.67e5         7303             19.5
## # ... with 332 more rows, and 19 more variables: estabs_exit <dbl>,
## #   estabs_exit_rate <dbl>, job_creation <dbl>, job_creation_births <dbl>,
## #   job_creation_continuers <dbl>, job_creation_rate_births <dbl>,
## #   job_creation_rate <dbl>, job_destruction <dbl>,
## #   job_destruction_deaths <dbl>, job_destruction_continuers <dbl>,
## #   job_destruction_rate_deaths <dbl>, job_destruction_rate <dbl>,
## #   net_job_creation <dbl>, net_job_creation_rate <dbl>,
## #   reallocation_rate <dbl>, firmdeath_firms <dbl>,
## #   firmdeath_estabs <dbl>, firmdeath_emp <dbl>, d_flag <dbl>
…
